Final Project: Smart City Data Hackathon
…
nye_taxis

# A tibble: 6,788 × 5
   hours rides type     LocationID hour_label
   <dbl> <dbl> <fct>         <int> <chr>     
 1     0     1 Pick ups        127 00:00     
 2     1    44 Pick ups        148 01:00     
 3     1    35 Pick ups         90 01:00     
 4     1     7 Pick ups          4 01:00     
 5     1     1 Pick ups        129 01:00     
 6     1     1 Pick ups         66 01:00     
 7     2    41 Pick ups        230 02:00     
 8     3    16 Pick ups        114 03:00     
 9     3    17 Pick ups        100 03:00     
10     3     1 Pick ups        264 03:00     
# ℹ 6,778 more rows
…
Warning in sf_column %in% names(g): Detected an unexpected many-to-many relationship between `x` and `y`.
ℹ Row 1 of `x` matches multiple rows in `y`.
ℹ Row 113 of `y` matches multiple rows in `x`.
ℹ If a many-to-many relationship is expected, set `relationship =
  "many-to-many"` to silence this warning.

nye_taxis_nyc

Simple feature collection with 6719 features and 10 fields
Geometry type: MULTIPOLYGON
Dimension:     XY
Bounding box:  xmin: -27700.26 ymin: -21884.17 xmax: 16890 ymax: 23938.48
Projected CRS: +proj=aea +lat_1=40 +lat_2=42 +lat_0=40.7 +lon_0=-73.9
# A tibble: 6,719 × 11
   OBJECTID Shape_Leng Shape_Area zone           LocationID borough
 *    <int>      <dbl>      <dbl> <chr>               <int> <chr>  
 1        1      0.116   0.000782 Newark Airport          1 EWR    
 2        1      0.116   0.000782 Newark Airport          1 EWR    
 3        1      0.116   0.000782 Newark Airport          1 EWR    
 4        1      0.116   0.000782 Newark Airport          1 EWR    
 5        1      0.116   0.000782 Newark Airport          1 EWR    
 6        1      0.116   0.000782 Newark Airport          1 EWR    
 7        1      0.116   0.000782 Newark Airport          1 EWR    
 8        1      0.116   0.000782 Newark Airport          1 EWR    
 9        1      0.116   0.000782 Newark Airport          1 EWR    
10        1      0.116   0.000782 Newark Airport          1 EWR    
# ℹ 6,709 more rows
# ℹ 5 more variables: geometry <MULTIPOLYGON [m]>, hours <dbl>, rides <dbl>,
#   type <fct>, hour_label <chr>
…
